^D:\DOCUMENTS\BENILDE\3RD TERM\BASPRG2\FINALS\FINALS\MAP.CPP
/c /ZI /JMC /nologo /W3 /WX- /diagnostics:classic /sdl /Od /Oy- /D _MBCS /Gm- /EHsc /RTC1 /MDd /GS /fp:precise /permissive- /Zc:wchar_t /Zc:forScope /Zc:inline /Fo"DEBUG\\" /Fd"DEBUG\VC141.PDB" /Gd /TP /analyze- /FC D:\DOCUMENTS\BENILDE\3RD TERM\BASPRG2\FINALS\FINALS\MAP.CPP
^D:\DOCUMENTS\BENILDE\3RD TERM\BASPRG2\FINALS\FINALS\POKEMON.CPP
/c /ZI /JMC /nologo /W3 /WX- /diagnostics:classic /sdl /Od /Oy- /D _MBCS /Gm- /EHsc /RTC1 /MDd /GS /fp:precise /permissive- /Zc:wchar_t /Zc:forScope /Zc:inline /Fo"DEBUG\\" /Fd"DEBUG\VC141.PDB" /Gd /TP /analyze- /FC D:\DOCUMENTS\BENILDE\3RD TERM\BASPRG2\FINALS\FINALS\POKEMON.CPP
^D:\DOCUMENTS\BENILDE\3RD TERM\BASPRG2\FINALS\FINALS\TRAINER.CPP
/c /ZI /JMC /nologo /W3 /WX- /diagnostics:classic /sdl /Od /Oy- /D _MBCS /Gm- /EHsc /RTC1 /MDd /GS /fp:precise /permissive- /Zc:wchar_t /Zc:forScope /Zc:inline /Fo"DEBUG\\" /Fd"DEBUG\VC141.PDB" /Gd /TP /analyze- /FC D:\DOCUMENTS\BENILDE\3RD TERM\BASPRG2\FINALS\FINALS\TRAINER.CPP
^D:\DOCUMENTS\BENILDE\3RD TERM\BASPRG2\FINALS\FINALS\SOURCE.CPP
/c /ZI /JMC /nologo /W3 /WX- /diagnostics:classic /sdl /Od /Oy- /D _MBCS /Gm- /EHsc /RTC1 /MDd /GS /fp:precise /permissive- /Zc:wchar_t /Zc:forScope /Zc:inline /Fo"DEBUG\\" /Fd"DEBUG\VC141.PDB" /Gd /TP /analyze- /FC D:\DOCUMENTS\BENILDE\3RD TERM\BASPRG2\FINALS\FINALS\SOURCE.CPP
